…
Then I wanted to also get rid of the ‘0’ value, so I will use the filter
function in the same way after I make sure there are no values between 0
and 1

``` r
outlier2<-lemis %>%
  filter(value<1 & taxa=="fish") %>%
  arrange(desc(value))
outlier2
```

    ## # A tibble: 12,553 × 28
    ##    control_number species_code taxa  class          genus     species subspecies
    ##             <dbl> <chr>        <chr> <chr>          <chr>     <chr>   <chr>     
    ##  1     2000826557 LEDA         fish  Actinopterygii Percina   panthe… <NA>      
    ##  2     2000698251 CCX?         fish  Elasmobranchii Carchari… sp.     <NA>      
    ##  3     2000726897 SALM         fish  Actinopterygii Salmonid… sp.     <NA>      
    ##  4     2000696823 FSCT         fish  <NA>           <NA>      <NA>    <NA>      
    ##  5     2000722212 TROP         fish  Actinopterygii All live… (inclu… <NA>      
    ##  6     2000789234 NONF         fish  <NA>           Non-CITE… sp.     <NA>      
    ##  7     2000729219 NONF         fish  <NA>           Non-CITE… sp.     <NA>      
    ##  8     2000789231 NONF         fish  <NA>           Non-CITE… sp.     <NA>      
    ##  9     2000797103 NONF         fish  <NA>           Non-CITE… sp.     <NA>      
    ## 10     2000734433 DAS?         fish  Elasmobranchii Dasyatis  sp.     <NA>      
    ## # … with 12,543 more rows, and 21 more variables: specific_name <chr>,
    ## #   generic_name <chr>, description <chr>, quantity <dbl>, unit <chr>,
    ## #   value <dbl>, country_origin <chr>, country_imp_exp <chr>, purpose <chr>,
    ## #   source <chr>, action <chr>, disposition <chr>, disposition_date <date>,
    ## #   disposition_year <dbl>, shipment_date <date>, shipment_year <dbl>,
    ## #   import_export <chr>, port <chr>, us_co <chr>, foreign_co <chr>,
    ## #   cleaning_notes <chr>
…
